Pablo-source.github.io - Annotated ggplot2 charts
…
str(MONTHLY_AE)

tibble [155 × 4] (S3: tbl_df/tbl/data.frame)
 $ period    : POSIXct[1:155], format: "2010-11-01" "2010-12-01" ...
 $ type_1_num: int [1:155] 1065456 1070728 1061897 1007384 1167089 1140917 1168080 1117614 1167234 1091366 ...
 $ type_2_num: int [1:155] 53584 45395 51420 51153 57694 53787 56642 54549 55995 51774 ...
 $ type_3_num: int [1:155] 485550 531699 541588 493882 579483 592289 594166 561550 596844 569890 ...

Code

MONTHLY_AE

# A tibble: 155 × 4
   period              type_1_num type_2_num type_3_num
   <dttm>                   <int>      <int>      <int>
 1 2010-11-01 00:00:00    1065456      53584     485550
 2 2010-12-01 00:00:00    1070728      45395     531699
 3 2011-01-01 00:00:00    1061897      51420     541588
 4 2011-02-01 00:00:00    1007384      51153     493882
 5 2011-03-01 00:00:00    1167089      57694     579483
 6 2011-04-01 00:00:00    1140917      53787     592289
 7 2011-05-01 00:00:00    1168080      56642     594166
 8 2011-06-01 00:00:00    1117614      54549     561550
 9 2011-07-01 00:00:00    1167234      55995     596844
10 2011-08-01 00:00:00    1091366      51774     569890
# ℹ 145 more rows
…
      England Time Series monthly data

3. Subset Type I attendances

We will focus on Type I attendances for this plot

Code

library(gt)
# Turn previous table into a gt table
TypeI  <-  MONTHLY_AE %>% 
select(period,type_1_num)
TypeI

# A tibble: 155 × 2
   period              type_1_num
   <dttm>                   <int>
 1 2010-11-01 00:00:00    1065456
 2 2010-12-01 00:00:00    1070728
 3 2011-01-01 00:00:00    1061897
 4 2011-02-01 00:00:00    1007384
 5 2011-03-01 00:00:00    1167089
 6 2011-04-01 00:00:00    1140917
 7 2011-05-01 00:00:00    1168080
 8 2011-06-01 00:00:00    1117614
 9 2011-07-01 00:00:00    1167234
10 2011-08-01 00:00:00    1091366
# ℹ 145 more rows
…
Code

str(TypeI)

tibble [155 × 2] (S3: tbl_df/tbl/data.frame)
 $ period    : POSIXct[1:155], format: "2010-11-01" "2010-12-01" ...
 $ type_1_num: int [1:155] 1065456 1070728 1061897 1007384 1167089 1140917 1168080 1117614 1167234 1091366 ...

Code

TypeI_date_format <- TypeI %>% mutate(Datef = as.Date(period))
TypeI_date_format

# A tibble: 155 × 3
   period              type_1_num Datef     
   <dttm>                   <int> <date>    
 1 2010-11-01 00:00:00    1065456 2010-11-01
 2 2010-12-01 00:00:00    1070728 2010-12-01
 3 2011-01-01 00:00:00    1061897 2011-01-01
 4 2011-02-01 00:00:00    1007384 2011-02-01
 5 2011-03-01 00:00:00    1167089 2011-03-01
 6 2011-04-01 00:00:00    1140917 2011-04-01
 7 2011-05-01 00:00:00    1168080 2011-05-01
 8 2011-06-01 00:00:00    1117614 2011-06-01
 9 2011-07-01 00:00:00    1167234 2011-07-01
10 2011-08-01 00:00:00    1091366 2011-08-01
# ℹ 145 more rows
…
